<svg width="226" height="734" viewBox="0 0 226 734" fill="none" xmlns="http://www.w3.org/2000/svg">
<g clip-path="url(#clip0)">
<path fill-rule="evenodd" clip-rule="evenodd" d="M138.3 664.64L129.58 693.31L94.7199 694.57L92.3899 651.46L138.3 664.64Z" fill="#F77F89"/>
<path fill-rule="evenodd" clip-rule="evenodd" d="M93.1899 689.61V727.28L187.45 729.41C187.45 729.41 184.77 702.49 136.57 702.05C136.75 690.22 136.77 689.61 136.77 689.61H93.1899Z" fill="#78C2AD"/>
<path fill-rule="evenodd" clip-rule="evenodd" d="M50.2 670.06L50.8499 698.29L87.25 699.56L96.7099 668.14L50.2 670.06Z" fill="#F77F89"/>
<path fill-rule="evenodd" clip-rule="evenodd" d="M105.25 0C144.86 0 153.06 37.63 153.08 51.45C153.08 64.62 150.51 66.63 150.6 79.98C150.66 90.12 153.6 97.22 153.33 102.98C151.77 132.98 111.21 141.63 99.6299 141.8C88.0499 141.97 37.6299 132.21 37.6299 108.89C37.6299 92.62 47.9799 66.6 47.6999 48.53C47.0799 11 78.4599 0 105.25 0Z" fill="black"/>
<path fill-rule="evenodd" clip-rule="evenodd" d="M50 693.28L50.54 730.98L143.07 733.07C143.07 733.07 143.07 705.58 92.39 705.07V693.28H50Z" fill="#78C2AD"/>
<path fill-rule="evenodd" clip-rule="evenodd" d="M40.9199 410.5L41.1599 674.23L107.28 672.79L108.28 660.58L150.92 666.33L177.98 391.33L163.37 320.91L66.7999 318.27L40.9199 410.5Z" fill="#3B4161"/>
<path fill-rule="evenodd" clip-rule="evenodd" d="M118.82 522.56L158.47 589.19L150.94 665.63L108.23 660.63L118.82 522.56Z" fill="#15192C"/>
<path fill-rule="evenodd" clip-rule="evenodd" d="M91 342H161.24L170.75 238.23L158.06 158.71L134.06 135.6L110 124.86L66.55 131.5L91 342Z" fill="#F7D167"/>
<path d="M63.3799 673.75L63.8399 393.22" stroke="#737999" stroke-width="1.7" stroke-linecap="round" stroke-linejoin="round"/>
<path fill-rule="evenodd" clip-rule="evenodd" d="M78.9301 123.58C62.5101 124.03 13.4801 141.83 6.32005 159.89C0.880054 173.59 -2.84995 297.55 9.93005 303.6C10.7505 303.997 11.6079 304.311 12.4901 304.54C11.7201 308.34 4.36005 396.33 6.23005 403.65C8.10005 410.97 13.0101 422.05 20.1201 421.65C47.6301 420 98.1701 383.89 103.19 378C103.96 366.84 106.09 324.92 106.09 324.92L101.71 200.54L76.6401 132C76.6401 132 95.3501 123.13 78.9301 123.58Z" fill="white"/>
<path fill-rule="evenodd" clip-rule="evenodd" d="M114.71 122.8C142.94 126.31 182.79 148.2 187.92 158.17C192.24 166.55 190.05 275.04 190.05 275.04C190.05 275.04 174.05 296.99 181.26 328.56C187.88 357.68 189.84 396.99 182.9 404.34C171.46 398.55 156.75 375.34 154.1 369.62C151.45 363.9 150.76 331.54 148.72 324.62C146.68 317.7 137.55 195.19 137.55 195.19C137.55 195.19 133.29 145.7 114.71 122.8Z" fill="white"/>
<path d="M43.6399 133.22C57.8499 159.13 86.6399 188.66 101.48 199.93" stroke="#C9C9C9" stroke-width="2" stroke-linecap="round" stroke-linejoin="round"/>
<path d="M129 125.77C141.65 142.83 144.91 171.82 135 201.26" stroke="#C9C9C9" stroke-width="2" stroke-linecap="round" stroke-linejoin="round"/>
<path d="M58 205.6C58 203.373 58.6606 201.195 59.8983 199.343C61.1361 197.491 62.8952 196.048 64.9533 195.196C67.0114 194.344 69.2759 194.122 71.4604 194.557C73.6449 194.992 75.6512 196.066 77.2256 197.641C78.7999 199.217 79.8715 201.225 80.3049 203.409C80.7382 205.594 80.5138 207.859 79.66 209.916C78.8062 211.973 77.3615 213.731 75.5084 214.967C73.6554 216.203 71.4774 216.862 69.25 216.86C66.2654 216.857 63.4039 215.67 61.2944 213.558C59.1849 211.447 58 208.585 58 205.6V205.6Z" stroke="#353823" stroke-width="3.41" stroke-linecap="round" stroke-linejoin="round"/>
<path fill-rule="evenodd" clip-rule="evenodd" d="M63.48 205.6C63.48 204.463 63.8172 203.351 64.449 202.405C65.0808 201.46 65.9789 200.723 67.0296 200.288C68.0802 199.852 69.2364 199.739 70.3517 199.96C71.4671 200.182 72.4917 200.73 73.2958 201.534C74.1 202.338 74.6476 203.363 74.8695 204.478C75.0914 205.594 74.9775 206.75 74.5423 207.8C74.1071 208.851 73.3701 209.749 72.4245 210.381C71.4789 211.013 70.3672 211.35 69.23 211.35C67.705 211.35 66.2425 210.744 65.1641 209.666C64.0858 208.588 63.48 207.125 63.48 205.6V205.6Z" fill="#353823"/>
<path d="M66.2099 194.75C58.6099 166.84 58.1199 128 77.7399 121" stroke="#353823" stroke-width="3.41" stroke-linecap="round" stroke-linejoin="round"/>
<path d="M112 116.25C123.19 120.99 133.85 142.85 136.35 161.57" stroke="#353823" stroke-width="3.41" stroke-linecap="round" stroke-linejoin="round"/>
<path d="M124.27 196.73C120.69 179.43 126.09 163.73 136.33 161.57C146.57 159.41 157.78 171.75 161.33 189.05C164.88 206.35 159.51 222.05 149.27 224.2C139.03 226.35 127.85 214 124.27 196.73Z" stroke="#353823" stroke-width="3.41" stroke-linecap="round" stroke-linejoin="round"/>
<path d="M54.6301 169.52L50.3101 253.63" stroke="#C9C9C9" stroke-width="2" stroke-linecap="round" stroke-linejoin="round"/>
<path d="M42.47 172L53.7 187.66" stroke="#C9C9C9" stroke-width="2" stroke-linecap="round" stroke-linejoin="round"/>
<path fill-rule="evenodd" clip-rule="evenodd" d="M80.0001 246.94L36.8201 257.27Z" fill="#606060"/>
<path d="M80.0001 246.94L36.8201 257.27" stroke="#C9C9C9" stroke-width="2" stroke-linecap="round" stroke-linejoin="round"/>
<path d="M39 245.72L50 254.12" stroke="#C9C9C9" stroke-width="2" stroke-linecap="round" stroke-linejoin="round"/>
<path d="M81.64 295.65C63.48 302.96 20.34 311.7 12.19 304.46C1.28997 294.77 -1.81003 194.76 3.65997 168.23C6.84997 152.79 22.96 142.85 31.36 138.85" stroke="#C9C9C9" stroke-width="2" stroke-linecap="round" stroke-linejoin="round"/>
<path d="M68.66 299.93C63.48 293.36 61.5 260.6 64 250.77" stroke="#C9C9C9" stroke-width="2" stroke-linecap="round" stroke-linejoin="round"/>
<path fill-rule="evenodd" clip-rule="evenodd" d="M69.23 257.17C69.228 256.647 69.3812 256.136 69.67 255.701C69.9589 255.265 70.3705 254.925 70.8528 254.724C71.335 254.523 71.8661 254.469 72.3789 254.57C72.8916 254.67 73.363 254.921 73.7332 255.29C74.1034 255.659 74.3558 256.129 74.4585 256.641C74.5612 257.154 74.5095 257.685 74.31 258.168C74.1105 258.651 73.7721 259.064 73.3377 259.354C72.9034 259.645 72.3926 259.8 71.87 259.8C71.5238 259.801 71.1807 259.734 70.8605 259.603C70.5402 259.471 70.2491 259.278 70.0038 259.033C69.7586 258.789 69.5639 258.499 69.4311 258.179C69.2984 257.859 69.23 257.516 69.23 257.17V257.17Z" fill="#C9C9C9"/>
<path d="M64.4199 337.47C58.6779 339.687 52.5752 340.823 46.4199 340.82C41.8528 340.776 37.3135 340.103 32.9299 338.82C32.6006 340.088 32.4227 341.39 32.3999 342.7V363.59C32.3999 367.966 34.1383 372.163 37.2326 375.257C40.327 378.352 44.5238 380.09 48.8999 380.09C53.276 380.09 57.4728 378.352 60.5672 375.257C63.6615 372.163 65.3999 367.966 65.3999 363.59V342.68C65.3579 340.902 65.027 339.142 64.4199 337.47Z" stroke="#C9C9C9" stroke-width="2" stroke-linecap="round" stroke-linejoin="round"/>
<path fill-rule="evenodd" clip-rule="evenodd" d="M128.42 190.52H214.65C219.88 190.52 223 194.61 221.65 199.65L188.36 322.11C187.548 324.685 185.958 326.945 183.809 328.58C181.661 330.215 179.058 331.144 176.36 331.24H90.18C84.96 331.24 81.83 327.15 83.18 322.11L116.46 199.65C117.269 197.081 118.852 194.824 120.993 193.19C123.134 191.555 125.728 190.623 128.42 190.52V190.52Z" fill="#78C2AD"/>
<path fill-rule="evenodd" clip-rule="evenodd" d="M152.22 184.22H201.16C201.703 184.175 202.249 184.268 202.747 184.49C203.245 184.713 203.678 185.058 204.006 185.493C204.335 185.929 204.548 186.44 204.625 186.98C204.703 187.519 204.642 188.07 204.45 188.58L202.07 196.9C201.667 198.13 200.897 199.207 199.863 199.986C198.83 200.766 197.583 201.21 196.29 201.26H147.35C146.807 201.303 146.263 201.208 145.766 200.984C145.27 200.761 144.838 200.416 144.51 199.982C144.182 199.547 143.969 199.037 143.89 198.498C143.812 197.96 143.87 197.41 144.06 196.9L146.44 188.58C146.846 187.352 147.616 186.276 148.649 185.497C149.682 184.718 150.927 184.273 152.22 184.22Z" fill="#4D8B84"/>
<path fill-rule="evenodd" clip-rule="evenodd" d="M79.7501 252.94C83.5625 250.735 87.6114 248.967 91.8201 247.67C97.8901 242.67 102.35 222.92 103.96 221.67C105.57 220.42 110.96 221.23 111.12 223.1C111.82 229.95 111.45 237.95 105.38 245.1C123.04 233.87 124.38 228.89 129.24 232.65C134.1 236.41 135.85 254.75 131.68 262.33C120.2 283.25 90.0001 286.08 80.7601 286.22C78.4601 276.27 78.4601 264.24 79.7501 252.94Z" fill="#F77F89"/>
<path d="M41.1499 653.65L109.43 651.46" stroke="#737999" stroke-width="1.7" stroke-linecap="round" stroke-linejoin="round"/>
<path d="M129.17 386.65L108.31 660.59" stroke="#737999" stroke-width="1.7" stroke-linecap="round" stroke-linejoin="round"/>
<path d="M110 638.58L153.12 643.64" stroke="#737999" stroke-width="1.7" stroke-linecap="round" stroke-linejoin="round"/>
<path d="M164.59 527.42C161.951 527.685 159.286 527.361 156.787 526.471C154.288 525.582 152.018 524.149 150.14 522.276C148.262 520.403 146.823 518.137 145.926 515.641C145.029 513.145 144.698 510.481 144.955 507.841C145.212 505.201 146.052 502.651 147.413 500.375C148.775 498.099 150.625 496.153 152.829 494.678C155.033 493.203 157.537 492.235 160.161 491.845C162.784 491.454 165.462 491.651 168 492.42" stroke="#737999" stroke-width="1.7" stroke-linecap="round" stroke-linejoin="round"/>
<path d="M117.65 539.69C112.503 539.406 107.671 537.126 104.18 533.334C100.689 529.542 98.8147 524.537 98.9567 519.385C99.0987 514.232 101.245 509.339 104.94 505.745C108.635 502.151 113.586 500.14 118.74 500.14C119.407 500.14 120.037 500.17 120.63 500.23" stroke="#737999" stroke-width="1.7" stroke-linecap="round" stroke-linejoin="round"/>
<path d="M132.35 238.09L116.9 250.46" stroke="#A7464F" stroke-width="3.41" stroke-linecap="round" stroke-linejoin="round"/>
<path d="M134 250.89L114.38 266.49" stroke="#A7464F" stroke-width="3.41" stroke-linecap="round" stroke-linejoin="round"/>
<path fill-rule="evenodd" clip-rule="evenodd" d="M220.16 250.3C219.92 246.18 221.16 237.03 224.82 228.3C226.16 225.14 226.24 219.94 221.53 219.94C216.17 219.94 209 230.7 212.53 243.51C216.06 256.32 220.51 256.12 220.16 250.3Z" fill="#F77F89"/>
<path fill-rule="evenodd" clip-rule="evenodd" d="M203.56 226.09C207.82 226.09 220.77 251.71 220.68 254.82C220.59 257.93 219.24 262.66 217.23 262.42C215.22 262.18 198.4 240.77 198.4 233.5C198.4 229.29 200.45 226.09 203.56 226.09Z" fill="#F77F89"/>
<path fill-rule="evenodd" clip-rule="evenodd" d="M198 240.81C203.31 240.81 217.31 261.23 217.41 263.57C217.51 265.91 214.68 268.06 212.34 268.16C210 268.26 193.27 254.54 193.27 248.16C193.24 244.26 195 240.81 198 240.81Z" fill="#F77F89"/>
<path fill-rule="evenodd" clip-rule="evenodd" d="M202.9 279C205.2 278.89 211.6 273.17 211.6 268.67C211.6 266.9 207.13 262.32 204.89 262.46C202.65 262.6 198.08 271.21 198.17 273.4C198.26 275.59 199.89 279.11 202.9 279Z" fill="#F77F89"/>
<path d="M211.6 235.56C216.19 243.2 220.73 252.98 220.68 254.82" stroke="#A7464F" stroke-width="3.41" stroke-linecap="round" stroke-linejoin="round"/>
<path d="M201.21 242.31C207.53 247.07 217.3 261.62 217.38 263.57" stroke="#A94B53" stroke-width="3.41" stroke-linecap="round" stroke-linejoin="round"/>
<path fill-rule="evenodd" clip-rule="evenodd" d="M63.0601 58.49C63.0601 35.6 81.3701 17 104 17C126.63 17 144.9 35.56 144.9 58.45C144.9 81.34 126.55 99.94 104 99.94C81.4501 99.94 63.0601 81.39 63.0601 58.49Z" fill="#F77F89"/>
<path fill-rule="evenodd" clip-rule="evenodd" d="M97.9399 61.48C98.3799 58.84 99.9399 56.89 101.5 57.15C103.06 57.41 103.92 59.75 103.5 62.39C103.08 65.03 101.5 66.98 99.9399 66.73C98.3799 66.48 97.5099 64.13 97.9399 61.48Z" fill="#B5545C"/>
<path fill-rule="evenodd" clip-rule="evenodd" d="M128.75 63.46C129.16 60.99 130.64 59.17 132.07 59.41C133.5 59.65 134.33 61.84 133.93 64.31C133.53 66.78 132.03 68.59 130.6 68.31C129.17 68.03 128.34 65.93 128.75 63.46Z" fill="#B5545C"/>
<path fill-rule="evenodd" clip-rule="evenodd" d="M69.31 76.74C71.74 83.5 77.85 118.63 76.31 131.39C82.71 141.09 111.23 138.39 119.73 130.18C115.5 118.37 115.34 109.9 116.89 99.94C118.36 90.62 66.88 70 69.31 76.74Z" fill="#F77F89"/>
<path fill-rule="evenodd" clip-rule="evenodd" d="M120.19 16C120.54 25.85 111.55 35.26 87.1101 39.93C89.7901 46.84 90.0101 57.23 76.6601 59.1C61.0901 61.26 59.8201 41.37 59.8201 41.37L83.1401 13.82C83.1401 13.82 119.85 6.13001 120.19 16Z" fill="black"/>
<path fill-rule="evenodd" clip-rule="evenodd" d="M112.85 9.06999C111.85 17.82 121.92 39.07 145.24 39.65C161.82 39.65 113.82 0.30999 112.85 9.06999Z" fill="black"/>
<path fill-rule="evenodd" clip-rule="evenodd" d="M85.7999 98.47C83.5599 95.64 86.7999 82.74 90.3299 76.83C94.5899 74.32 109.7 76.41 117.49 69.71C119.78 67.71 121.01 69.19 122.79 71.38C125.92 75.22 135.33 77.21 138.85 79.38C139.37 84.98 134.23 97.8 132.01 100.67C128.53 105.22 96.7199 105.63 85.7999 98.47Z" fill="white"/>
<path d="M92.39 78C90.33 74.56 81.33 59.17 78.46 55.27" stroke="white" stroke-width="3.41" stroke-linecap="round" stroke-linejoin="round"/>
<path d="M87.5699 97.65C81.4799 97.65 66.9999 78.6 65.3499 72.21" stroke="white" stroke-width="3.41" stroke-linecap="round" stroke-linejoin="round"/>
<path fill-rule="evenodd" clip-rule="evenodd" d="M56.0601 61.89C56.0601 59.2536 56.8418 56.6764 58.3066 54.4843C59.7713 52.2921 61.8532 50.5836 64.2889 49.5747C66.7246 48.5658 69.4048 48.3018 71.9906 48.8161C74.5764 49.3305 76.9516 50.6 78.8158 52.4643C80.68 54.3285 81.9496 56.7037 82.4639 59.2895C82.9783 61.8752 82.7143 64.5554 81.7054 66.9912C80.6965 69.4269 78.9879 71.5088 76.7958 72.9735C74.6037 74.4382 72.0265 75.22 69.3901 75.22C65.8547 75.22 62.4642 73.8156 59.9643 71.3157C57.4645 68.8159 56.0601 65.4253 56.0601 61.89V61.89Z" fill="#F77F89"/>
<path d="M140.29 724.16L50.4299 723.54" stroke="#4D8B84" stroke-width="1.7" stroke-linecap="round" stroke-linejoin="round"/>
<path d="M142.21 728.57C139.74 720.76 130.08 705.46 92.3899 705.09V701.3" stroke="#4D8B84" stroke-width="1.7" stroke-linecap="round" stroke-linejoin="round"/>
<path d="M50.4299 713.18C52.6624 713.18 54.873 713.62 56.9356 714.474C58.9981 715.328 60.8722 716.581 62.4507 718.159C64.0293 719.738 65.2816 721.612 66.1359 723.674C66.9902 725.737 67.4299 727.947 67.4299 730.18C67.4299 730.63 67.4299 731.07 67.4299 731.51" stroke="#4D8B84" stroke-width="1.7" stroke-linecap="round" stroke-linejoin="round"/>
<path d="M102.35 713.72L106.76 706.08" stroke="#4D8B84" stroke-width="1.7" stroke-linecap="round" stroke-linejoin="round"/>
<path d="M112.73 715.52L116.49 708.02" stroke="#4D8B84" stroke-width="1.7" stroke-linecap="round" stroke-linejoin="round"/>
<path d="M122.55 717.49L125.82 711.42" stroke="#4D8B84" stroke-width="1.7" stroke-linecap="round" stroke-linejoin="round"/>
<path d="M104.69 351.64L151.39 350.18" stroke="#737999" stroke-width="1.7" stroke-linecap="round" stroke-linejoin="round"/>
<path d="M50.0701 698.13L92.3901 697.44" stroke="#4D8B84" stroke-width="1.7" stroke-linecap="round" stroke-linejoin="round"/>
<path d="M93.1899 694L136.71 693.65" stroke="#4D8B84" stroke-width="1.7" stroke-linecap="round" stroke-linejoin="round"/>
<path d="M185.19 722.82L138.77 721.82" stroke="#4D8B84" stroke-width="1.7" stroke-linecap="round" stroke-linejoin="round"/>
<path d="M150.67 703.06L146.67 710.17" stroke="#4D8B84" stroke-width="1.7" stroke-linecap="round" stroke-linejoin="round"/>
<path d="M157.34 704.65L153.34 711.77" stroke="#4D8B84" stroke-width="1.7" stroke-linecap="round" stroke-linejoin="round"/>
<path d="M164.46 706.61L160.46 713.73" stroke="#4D8B84" stroke-width="1.7" stroke-linecap="round" stroke-linejoin="round"/>
<path d="M32.49 419.2C17.49 425.48 6.23004 414.29 6.14004 403.2C6.05004 392.11 10.44 325.94 11.04 319.34" stroke="#C9C9C9" stroke-width="2" stroke-linecap="round" stroke-linejoin="round"/>
<path d="M189.82 174C190.6 151.36 166.76 141 156.95 136.56" stroke="#C9C9C9" stroke-width="2" stroke-linecap="round" stroke-linejoin="round"/>
<path d="M185.16 400C187.03 387.93 187.16 355.27 184 342.81" stroke="#C9C9C9" stroke-width="2" stroke-linecap="round" stroke-linejoin="round"/>
</g>
<defs>
<clipPath id="clip0">
<rect width="225.62" height="733.07" fill="white"/>
</clipPath>
</defs>
</svg>
